date,# events
2018-01-01,0
2018-01-02,0
2018-01-03,0
2018-01-04,0
2018-01-05,0
2018-01-06,0
2018-01-07,0
2018-01-08,0
2018-01-09,1
2018-01-10,1
2018-01-11,0
2018-01-12,1
2018-01-13,0
2018-01-14,0
2018-01-15,0
2018-01-16,0
2018-01-17,1
2018-01-18,1
2018-01-19,0
2018-01-20,0
2018-01-21,0
2018-01-22,0
2018-01-23,0
2018-01-24,0
2018-01-25,5
2018-01-26,0
2018-01-27,0
2018-01-28,0
2018-01-29,0
2018-01-30,0
2018-01-31,0
2018-02-01,0
2018-02-02,0
2018-02-03,0
2018-02-04,0
2018-02-05,0
2018-02-06,0
2018-02-07,0
2018-02-08,0
2018-02-09,0
2018-02-10,0
2018-02-11,0
2018-02-12,0
2018-02-13,3
2018-02-14,11
2018-02-15,2
2018-02-16,2
2018-02-17,0
2018-02-18,0
2018-02-19,0
2018-02-20,7
2018-02-21,0
2018-02-22,0
2018-02-23,0
2018-02-24,0
2018-02-25,0
2018-02-26,0
2018-02-27,10
2018-02-28,7
2018-03-01,0
2018-03-02,0
2018-03-03,0
2018-03-04,1
2018-03-05,1
2018-03-06,2
2018-03-07,2
2018-03-08,0
2018-03-09,154
2018-03-10,1
2018-03-11,0
2018-03-12,3
2018-03-13,156
2018-03-14,6
2018-03-15,14
2018-03-16,5
2018-03-17,0
2018-03-18,0
2018-03-19,10
2018-03-20,4
2018-03-21,2
2018-03-22,9
2018-03-23,3
2018-03-24,0
2018-03-25,0
2018-03-26,0
2018-03-27,0
2018-03-28,0
2018-03-29,0
2018-03-30,0
2018-03-31,0
2018-04-01,0
2018-04-02,0
2018-04-03,0
2018-04-04,0
2018-04-05,1
2018-04-06,0
2018-04-07,0
2018-04-08,0
2018-04-09,0
2018-04-10,3
2018-04-11,0
2018-04-12,0
2018-04-13,0
2018-04-14,0
2018-04-15,0
2018-04-16,0
2018-04-17,0
2018-04-18,0
2018-04-19,1
2018-04-20,1
2018-04-21,0
2018-04-22,1
2018-04-23,2
2018-04-24,3
2018-04-25,3
2018-04-26,3
2018-04-27,4
2018-04-28,1
2018-04-29,4
2018-04-30,3
2018-05-01,6
2018-05-02,2
2018-05-03,4
2018-05-04,6
2018-05-05,3
2018-05-06,5
2018-05-07,4
2018-05-08,2
2018-05-09,10
2018-05-10,5
2018-05-11,7
2018-05-12,8
2018-05-13,4
2018-05-14,8
2018-05-15,2
2018-05-16,4
2018-05-17,3
2018-05-18,6
2018-05-19,6
2018-05-20,3
2018-05-21,5
2018-05-22,6
2018-05-23,6
2018-05-24,3
2018-05-25,4
2018-05-26,2
2018-05-27,2
2018-05-28,1
2018-05-29,8
2018-05-30,2
2018-05-31,6
2018-06-01,11
2018-06-02,4
2018-06-03,0
2018-06-04,2
2018-06-05,3
2018-06-06,9
2018-06-07,6
2018-06-08,0
2018-06-09,9
2018-06-10,6
2018-06-11,7
2018-06-12,2
2018-06-13,0
2018-06-14,0
2018-06-15,17
2018-06-16,0
2018-06-17,0
2018-06-18,5
2018-06-19,3
2018-06-20,5
2018-06-21,1
2018-06-22,0
2018-06-23,0
2018-06-24,0
2018-06-25,0
2018-06-26,1
2018-06-27,2
2018-06-28,5
2018-06-29,3
2018-06-30,0
2018-07-01,0
2018-07-02,0
2018-07-03,1
2018-07-04,6
2018-07-05,0
2018-07-06,0
2018-07-07,0
2018-07-08,5
2018-07-09,4
2018-07-10,6
2018-07-11,3
2018-07-12,5
2018-07-13,5
2018-07-14,1
2018-07-15,6
2018-07-16,5
2018-07-17,1
2018-07-18,9
2018-07-19,5
2018-07-20,3
2018-07-21,8
2018-07-22,7
2018-07-23,2
2018-07-24,0
2018-07-25,0
2018-07-26,0
2018-07-27,0
2018-07-28,0
2018-07-29,0
2018-07-30,0
2018-07-31,0
2018-08-01,4
2018-08-02,7
2018-08-03,3
2018-08-04,3
2018-08-05,3
2018-08-06,3
2018-08-07,1
2018-08-08,4
2018-08-09,8
2018-08-10,3
2018-08-11,2
2018-08-12,11
2018-08-13,7
2018-08-14,2
2018-08-15,4
2018-08-16,5
2018-08-17,9
2018-08-18,8
2018-08-19,6
2018-08-20,3
2018-08-21,11
2018-08-22,1
2018-08-23,3
2018-08-24,5
2018-08-25,9
2018-08-26,5
2018-08-27,10
2018-08-28,2
2018-08-29,7
2018-08-30,7
2018-08-31,6
2018-09-01,4
2018-09-02,4
2018-09-03,5
2018-09-04,5
2018-09-05,7
2018-09-06,4
2018-09-07,4
2018-09-08,5
2018-09-09,3
2018-09-10,7
2018-09-11,3
2018-09-12,0
2018-09-13,0
2018-09-14,0
2018-09-15,0
2018-09-16,0
2018-09-17,2
2018-09-18,0
2018-09-19,1
2018-09-20,1
2018-09-21,4
2018-09-22,0
2018-09-23,0
2018-09-24,4
2018-09-25,3
2018-09-26,3
2018-09-27,6
2018-09-28,22
2018-09-29,29
2018-09-30,28
2018-10-01,20
2018-10-02,25
2018-10-03,31
2018-10-04,26
2018-10-05,29
2018-10-06,24
2018-10-07,34
2018-10-08,29
2018-10-09,21
2018-10-10,13
2018-10-11,33
2018-10-12,26
2018-10-13,28
2018-10-14,29
2018-10-15,29
2018-10-16,34
2018-10-17,94
2018-10-18,95
2018-10-19,5
2018-10-20,3
2018-10-21,3
2018-10-22,3
2018-10-23,5
2018-10-24,0
2018-10-25,3
2018-10-26,2
2018-10-27,1
2018-10-28,0
2018-10-29,1
2018-10-30,0
2018-10-31,10
2018-11-01,0
2018-11-02,3
2018-11-03,0
2018-11-04,0
2018-11-05,0
2018-11-06,0
2018-11-07,0
2018-11-08,1
2018-11-09,0
2018-11-10,3
2018-11-11,5
2018-11-12,2
2018-11-13,6
2018-11-14,2
2018-11-15,3
2018-11-16,5
2018-11-17,4
2018-11-18,4
2018-11-19,4
2018-11-20,3
2018-11-21,0
2018-11-22,3
2018-11-23,7
2018-11-24,6
2018-11-25,5
2018-11-26,3
2018-11-27,5
2018-11-28,11
2018-11-29,1
2018-11-30,7
2018-12-01,6
2018-12-02,4
2018-12-03,32
2018-12-04,0
2018-12-05,0
2018-12-06,16
2018-12-07,325
2018-12-08,951
2018-12-09,169
2018-12-10,788
2018-12-11,66
2018-12-12,119
2018-12-13,204
2018-12-14,8
2018-12-15,0
2018-12-16,0
2018-12-17,0
2018-12-18,0
2018-12-19,0
2018-12-20,0
2018-12-21,0
2018-12-22,0
2018-12-23,0
2018-12-24,0
2018-12-25,0
2018-12-26,0
2018-12-27,0
2018-12-28,0
2018-12-29,0
2018-12-30,0
2018-12-31,0
